<svg xmlns="http://www.w3.org/2000/svg" width="69.897" height="71.543" viewBox="0 0 69.897 71.543">
  <g id="Group_716" data-name="Group 716" transform="translate(-469.411 -147.877)">
    <g id="Group_710" data-name="Group 710">
      <path id="Path_3092" data-name="Path 3092" d="M527.2,176.669a26.7,26.7,0,1,1-17.99-16.012l4.945-4.942a32.932,32.932,0,1,0,17.774,16.226Z"/>
    </g>
    <g id="Group_711" data-name="Group 711">
      <path id="Path_3093" data-name="Path 3093" d="M502.358,172.23a13.316,13.316,0,0,1,3.637.515l3.316-3.556a17.9,17.9,0,1,0,9.034,8.591l-3.33,3.572a13.351,13.351,0,1,1-12.657-9.122Z"/>
    </g>
    <g id="Group_712" data-name="Group 712">
      <path id="Path_3094" data-name="Path 3094" d="M513.065,163.23v7.951L503.3,181.237a4.451,4.451,0,1,0,3.512,4.349,4.357,4.357,0,0,0-.229-1.341l9.836-10.124h7.543l15.348-15.348-7.274-.727,3.762-3.872-3.192-3.1-3.505,3.61-.684-6.8Z"/>
    </g>
  </g>
</svg>
