<svg xmlns="http://www.w3.org/2000/svg" width="27.997" height="28.65" viewBox="0 0 27.997 28.65">
  <path id="icons8-search_1_" data-name="icons8-search (1)" d="M20.9,3A11.093,11.093,0,1,1,14.42,23.085L5.835,31.65,4,29.814l8.483-8.5A11.092,11.092,0,0,1,20.9,3Zm0,1.305a9.788,9.788,0,1,0,9.788,9.788A9.777,9.777,0,0,0,20.9,4.305Z" transform="translate(-4 -3)"/>
</svg>
